﻿"call_timeout" : 10,
"retry_time" : 30,
"giveup_limit" : 0,
"verbose_level" : 3,
"print_motd" : false,
"h_print_time" : 60,
"aes_override" : null,
"use_slow_memory" : "warn",
"tls_secure_algo" : true,
"daemon_mode" : false,
"output_file" : "",
"httpd_port" : 0,
"http_login" : "",
"http_pass" : "",
"prefer_ipv4" : true,
