"cpu_threads_conf" :
[
    { "low_power_mode" : false, "no_prefetch" : true, "asm" : "auto", "affine_to_cpu" : 0 },
    { "low_power_mode" : false, "no_prefetch" : true, "asm" : "auto", "affine_to_cpu" : 2 },
],
